<svg width="48" height="48" viewBox="0 0 48 48" fill="none" xmlns="http://www.w3.org/2000/svg">
<path d="M41.4648 13.4054C40.2123 13.9604 38.8668 14.3354 37.4523 14.5049C38.9118 13.6316 40.0037 12.2571 40.5243 10.6379C39.153 11.4524 37.6523 12.0257 36.0873 12.3329C35.0348 11.2092 33.6409 10.4644 32.1218 10.2141C30.6026 9.9638 29.0434 10.2221 27.6861 10.9488C26.3288 11.6754 25.2494 12.8299 24.6155 14.2329C23.9816 15.6359 23.8286 17.209 24.1803 18.7079C21.4018 18.5684 18.6837 17.8462 16.2024 16.5882C13.7211 15.3303 11.532 13.5646 9.77726 11.4059C9.17726 12.4409 8.83226 13.6409 8.83226 14.9189C8.83159 16.0694 9.11491 17.2022 9.65708 18.217C10.1992 19.2317 10.9835 20.0969 11.9403 20.7359C10.8307 20.7006 9.74557 20.4007 8.77526 19.8614V19.9514C8.77515 21.565 9.33331 23.1289 10.355 24.3779C11.3768 25.6268 12.7991 26.4838 14.3808 26.8034C13.3514 27.0819 12.2723 27.123 11.2248 26.9234C11.671 28.3118 12.5403 29.5259 13.7108 30.3958C14.8814 31.2656 16.2946 31.7476 17.7528 31.7744C15.2775 33.7175 12.2206 34.7715 9.07376 34.7669C8.51633 34.767 7.95938 34.7345 7.40576 34.6694C10.6 36.7231 14.3183 37.8131 18.1158 37.8089C30.9708 37.8089 37.9983 27.1619 37.9983 17.9279C37.9983 17.6279 37.9908 17.3249 37.9773 17.0249C39.3442 16.0363 40.5241 14.8122 41.4618 13.4099L41.4648 13.4054Z" fill="white"/>
</svg>
